…
    ## Warning in mean.default(data$Age, na.rm = T): argument is not numeric or
    ## logical: returning NA

``` r
upper_age <- mean(data$Age, na.rm = T) +  (sd(data$Age, na.rm = T) * x)
```

    ## Warning in mean.default(data$Age, na.rm = T): argument is not numeric or
    ## logical: returning NA

``` r
data[(data$Age >= lower_age) & (data$Age <= upper_age) & (!is.na(data$Age)), ]
```

    ## # A tibble: 183 x 12
    ##    PassengerId Survived Pclass Name  Sex   Age   SibSp Parch Ticket Fare  Cabin
    ##          <dbl>    <dbl>  <dbl> <chr> <chr> <chr> <chr> <chr> <chr>  <chr> <chr>
    ##  1          NA       NA     NA <NA>  <NA>  <NA>  <NA>  <NA>  <NA>   <NA>  <NA> 
    ##  2          NA       NA     NA <NA>  <NA>  <NA>  <NA>  <NA>  <NA>   <NA>  <NA> 
    ##  3          NA       NA     NA <NA>  <NA>  <NA>  <NA>  <NA>  <NA>   <NA>  <NA> 
    ##  4          NA       NA     NA <NA>  <NA>  <NA>  <NA>  <NA>  <NA>   <NA>  <NA> 
    ##  5          NA       NA     NA <NA>  <NA>  <NA>  <NA>  <NA>  <NA>   <NA>  <NA> 
    ##  6          NA       NA     NA <NA>  <NA>  <NA>  <NA>  <NA>  <NA>   <NA>  <NA> 
    ##  7          NA       NA     NA <NA>  <NA>  <NA>  <NA>  <NA>  <NA>   <NA>  <NA> 
    ##  8          NA       NA     NA <NA>  <NA>  <NA>  <NA>  <NA>  <NA>   <NA>  <NA> 
    ##  9          NA       NA     NA <NA>  <NA>  <NA>  <NA>  <NA>  <NA>   <NA>  <NA> 
    ## 10          NA       NA     NA <NA>  <NA>  <NA>  <NA>  <NA>  <NA>   <NA>  <NA> 
    ## # i 173 more rows
    ## # i 1 more variable: Embarked <chr>
…
    ## Warning in mean.default(data$SibSp, na.rm = T): argument is not numeric or
    ## logical: returning NA

``` r
upper_sib <- mean(data$SibSp, na.rm = T) +  (sd(data$SibSp, na.rm = T) * x2)
```

    ## Warning in mean.default(data$SibSp, na.rm = T): argument is not numeric or
    ## logical: returning NA

``` r
data[(data$SibSp >= lower_sib) & (data$SibSp <= upper_sib) & (!is.na(data$SibSp)), ]
```

    ## # A tibble: 183 x 12
    ##    PassengerId Survived Pclass Name  Sex   Age   SibSp Parch Ticket Fare  Cabin
    ##          <dbl>    <dbl>  <dbl> <chr> <chr> <chr> <chr> <chr> <chr>  <chr> <chr>
    ##  1          NA       NA     NA <NA>  <NA>  <NA>  <NA>  <NA>  <NA>   <NA>  <NA> 
    ##  2          NA       NA     NA <NA>  <NA>  <NA>  <NA>  <NA>  <NA>   <NA>  <NA> 
    ##  3          NA       NA     NA <NA>  <NA>  <NA>  <NA>  <NA>  <NA>   <NA>  <NA> 
    ##  4          NA       NA     NA <NA>  <NA>  <NA>  <NA>  <NA>  <NA>   <NA>  <NA> 
    ##  5          NA       NA     NA <NA>  <NA>  <NA>  <NA>  <NA>  <NA>   <NA>  <NA> 
    ##  6          NA       NA     NA <NA>  <NA>  <NA>  <NA>  <NA>  <NA>   <NA>  <NA> 
    ##  7          NA       NA     NA <NA>  <NA>  <NA>  <NA>  <NA>  <NA>   <NA>  <NA> 
    ##  8          NA       NA     NA <NA>  <NA>  <NA>  <NA>  <NA>  <NA>   <NA>  <NA> 
    ##  9          NA       NA     NA <NA>  <NA>  <NA>  <NA>  <NA>  <NA>   <NA>  <NA> 
    ## 10          NA       NA     NA <NA>  <NA>  <NA>  <NA>  <NA>  <NA>   <NA>  <NA> 
    ## # i 173 more rows
    ## # i 1 more variable: Embarked <chr>
…
    ## Warning in mean.default(data$Parch, na.rm = T): argument is not numeric or
    ## logical: returning NA

``` r
upper_parch <- mean(data$Parch, na.rm = T) +  (sd(data$Parch, na.rm = T) * x3)
```

    ## Warning in mean.default(data$Parch, na.rm = T): argument is not numeric or
    ## logical: returning NA

``` r
data[(data$Parch >= lower_parch) & (data$Parch <= upper_parch) & (!is.na(data$Parch)), ]
```

    ## # A tibble: 183 x 12
    ##    PassengerId Survived Pclass Name  Sex   Age   SibSp Parch Ticket Fare  Cabin
    ##          <dbl>    <dbl>  <dbl> <chr> <chr> <chr> <chr> <chr> <chr>  <chr> <chr>
    ##  1          NA       NA     NA <NA>  <NA>  <NA>  <NA>  <NA>  <NA>   <NA>  <NA> 
    ##  2          NA       NA     NA <NA>  <NA>  <NA>  <NA>  <NA>  <NA>   <NA>  <NA> 
    ##  3          NA       NA     NA <NA>  <NA>  <NA>  <NA>  <NA>  <NA>   <NA>  <NA> 
    ##  4          NA       NA     NA <NA>  <NA>  <NA>  <NA>  <NA>  <NA>   <NA>  <NA> 
    ##  5          NA       NA     NA <NA>  <NA>  <NA>  <NA>  <NA>  <NA>   <NA>  <NA> 
    ##  6          NA       NA     NA <NA>  <NA>  <NA>  <NA>  <NA>  <NA>   <NA>  <NA> 
    ##  7          NA       NA     NA <NA>  <NA>  <NA>  <NA>  <NA>  <NA>   <NA>  <NA> 
    ##  8          NA       NA     NA <NA>  <NA>  <NA>  <NA>  <NA>  <NA>   <NA>  <NA> 
    ##  9          NA       NA     NA <NA>  <NA>  <NA>  <NA>  <NA>  <NA>   <NA>  <NA> 
    ## 10          NA       NA     NA <NA>  <NA>  <NA>  <NA>  <NA>  <NA>   <NA>  <NA> 
    ## # i 173 more rows
    ## # i 1 more variable: Embarked <chr>
…
    ## Warning in mean.default(data$Fare, na.rm = T): argument is not numeric or
    ## logical: returning NA

``` r
upper_fare <- mean(data$Fare, na.rm = T) +  (sd(data$Fare, na.rm = T) * x4)
```

    ## Warning in mean.default(data$Fare, na.rm = T): argument is not numeric or
    ## logical: returning NA

``` r
data[(data$Fare >= lower_fare) & (data$Fare <= upper_fare) & (!is.na(data$Fare)), ]
```

    ## # A tibble: 183 x 12
    ##    PassengerId Survived Pclass Name  Sex   Age   SibSp Parch Ticket Fare  Cabin
    ##          <dbl>    <dbl>  <dbl> <chr> <chr> <chr> <chr> <chr> <chr>  <chr> <chr>
    ##  1          NA       NA     NA <NA>  <NA>  <NA>  <NA>  <NA>  <NA>   <NA>  <NA> 
    ##  2          NA       NA     NA <NA>  <NA>  <NA>  <NA>  <NA>  <NA>   <NA>  <NA> 
    ##  3          NA       NA     NA <NA>  <NA>  <NA>  <NA>  <NA>  <NA>   <NA>  <NA> 
    ##  4          NA       NA     NA <NA>  <NA>  <NA>  <NA>  <NA>  <NA>   <NA>  <NA> 
    ##  5          NA       NA     NA <NA>  <NA>  <NA>  <NA>  <NA>  <NA>   <NA>  <NA> 
    ##  6          NA       NA     NA <NA>  <NA>  <NA>  <NA>  <NA>  <NA>   <NA>  <NA> 
    ##  7          NA       NA     NA <NA>  <NA>  <NA>  <NA>  <NA>  <NA>   <NA>  <NA> 
    ##  8          NA       NA     NA <NA>  <NA>  <NA>  <NA>  <NA>  <NA>   <NA>  <NA> 
    ##  9          NA       NA     NA <NA>  <NA>  <NA>  <NA>  <NA>  <NA>   <NA>  <NA> 
    ## 10          NA       NA     NA <NA>  <NA>  <NA>  <NA>  <NA>  <NA>   <NA>  <NA> 
    ## # i 173 more rows
    ## # i 1 more variable: Embarked <chr>
…
